id,address,city,email,employee_num,enabled,family,field,membership_num,mobile,name,national_code,password,phone,plain,province,recovery_field,role,username
1,,,,,TRUE,,,,,,,$2a$10$O6F.70uiKuNWvyhZnDHgoeZMclWMSLgxpRESxTl/l16JBVleC4AM2,,123456,,,ROLE_SUPERXXVISOR,supervisor@razi
2,,,,,TRUE,,,,,,,$2a$10$O6F.70uiKuNWvyhZnDHgoeZMclWMSLgxpRESxTl/l16JBVleC4AM2,,123456,,,ROLE_AGEXXNT,agent@razi
3,,,,,TRUE,,,,,,,$2a$10$O6F.70uiKuNWvyhZnDHgoeZMclWMSLgxpRESxTl/l16JBVleC4AM2,,123456,,,ROLE_SUPERXXVISOR,supervisor@dana
4,,,,,TRUE,,,,,,,$2a$10$O6F.70uiKuNWvyhZnDHgoeZMclWMSLgxpRESxTl/l16JBVleC4AM2,,123456,,,ROLE_AGEXXNT,agent@dana
5,,,,,TRUE,,,,,,,$2a$10$O6F.70uiKuNWvyhZnDHgoeZMclWMSLgxpRESxTl/l16JBVleC4AM2,,123456,,,ROLE_SUPERXXVISOR,supervisor@asia
6,,,,,TRUE,,,,,,,$2a$10$O6F.70uiKuNWvyhZnDHgoeZMclWMSLgxpRESxTl/l16JBVleC4AM2,,123456,,,ROLE_AGEXXNT,agent@asia
7,,,,,TRUE,,,,,,,$2a$10$O6F.70uiKuNWvyhZnDHgoeZMclWMSLgxpRESxTl/l16JBVleC4AM2,,123456,,,ROLE_SUPERXXVISOR,supervisor@ma
8,,,,,TRUE,,,,,,,$2a$10$O6F.70uiKuNWvyhZnDHgoeZMclWMSLgxpRESxTl/l16JBVleC4AM2,,123456,,,ROLE_AGEXXNT,agent@ma
9,,,,,TRUE,,,,,,,$2a$10$O6F.70uiKuNWvyhZnDHgoeZMclWMSLgxpRESxTl/l16JBVleC4AM2,,123456,,,ROLE_SUPERXXVISOR,supervisor@pasargad
10,,,,,TRUE,,,,,,,$2a$10$O6F.70uiKuNWvyhZnDHgoeZMclWMSLgxpRESxTl/l16JBVleC4AM2,,123456,,,ROLE_AGEXXNT,agent@pasargad
11,,,,,TRUE,,,,,,,$2a$10$O6F.70uiKuNWvyhZnDHgoeZMclWMSLgxpRESxTl/l16JBVleC4AM2,,123456,,,ROLE_SUPERXXVISOR,supervisor@saman
12,,,,,TRUE,,,,,,,$2a$10$O6F.70uiKuNWvyhZnDHgoeZMclWMSLgxpRESxTl/l16JBVleC4AM2,,123456,,,ROLE_AGEXXNT,agent@saman
13,,,,,TRUE,,,,,,,$2a$10$O6F.70uiKuNWvyhZnDHgoeZMclWMSLgxpRESxTl/l16JBVleC4AM2,,123456,,,ROLE_SUPERXXVISOR,supervisor@iran
14,,,,,TRUE,,,,,,,$2a$10$O6F.70uiKuNWvyhZnDHgoeZMclWMSLgxpRESxTl/l16JBVleC4AM2,,123456,,,ROLE_AGEXXNT,agent@iran
15,,,,,TRUE,,,,,,,$2a$10$O6F.70uiKuNWvyhZnDHgoeZMclWMSLgxpRESxTl/l16JBVleC4AM2,,123456,,,ROLE_CUSTXXOMER,user@test
16,,,,,TRUE,,,,,,,$2a$10$O6F.70uiKuNWvyhZnDHgoeZMclWMSLgxpRESxTl/l16JBVleC4AM2,,123456,,,ROLE_CUSTXXOMER,karbar
17,,,,,TRUE,,,,,,,$2a$10$O6F.70uiKuNWvyhZnDHgoeZMclWMSLgxpRESxTl/l16JBVleC4AM2,,123456,,,ROLE_CUSTXXOMER,customer@test
18,,,,,TRUE,,,,,,,$2a$10$O6F.70uiKuNWvyhZnDHgoeZMclWMSLgxpRESxTl/l16JBVleC4AM2,,123456,,,ROLE_CLXXUB_ADXXMIN,club@shop
19,,,,,TRUE,,,,,,,$2a$10$O6F.70uiKuNWvyhZnDHgoeZMclWMSLgxpRESxTl/l16JBVleC4AM2,,123456,,,ROLE_ORGANIZXXATION_ADXXMIN,organization@shop
20,,,,,TRUE,,,,,,,$2a$10$O6F.70uiKuNWvyhZnDHgoeZMclWMSLgxpRESxTl/l16JBVleC4AM2,,123456,,,ROLE_SHXXOP_OWXXNER,shop@shop
21,,,,,TRUE,,,,,,,$2a$10$O6F.70uiKuNWvyhZnDHgoeZMclWMSLgxpRESxTl/l16JBVleC4AM2,,123456,,,ROLE_ADXXMIN,admin
22,,,,,TRUE,,,,,,,$2a$10$O6F.70uiKuNWvyhZnDHgoeZMclWMSLgxpRESxTl/l16JBVleC4AM2,,123456,,,ROLE_ACTUXXATOR_ADMXXIN,actuator_client
